Digital_Circuits/traffic_light_controller/simulation/qsim/traffic_light_controller.msim.vcd
$comment
	File created using the following command:
		vcd file traffic_light_controller.msim.vcd -direction
$end
$date
	Sat Dec 16 13:12:29 2023
$end
$version
	ModelSim Version 2020.1
$end
$timescale
	1ps
$end

$scope module traffic_light_controller_vlg_vec_tst $end
$var reg 1 ! clock $end
$var wire 1 " green $end
$var wire 1 # red $end
$var wire 1 $ yellow $end

$scope module i1 $end
$var wire 1 % gnd $end
$var wire 1 & vcc $end
$var wire 1 ' unknown $end
$var tri1 1 ( devclrn $end
$var tri1 1 ) devpor $end
$var tri1 1 * devoe $end
$var wire 1 + red~output_o $end
$var wire 1 , yellow~output_o $end
$var wire 1 - green~output_o $end
$var wire 1 . clock~input_o $end
$var wire 1 / clock~inputclkctrl_outclk $end
$var wire 1 0 state.ST_INIT~feeder_combout $end
$var wire 1 1 state.ST_INIT~q $end
$var wire 1 2 state~10_combout $end
$var wire 1 3 state.ST_GREEN~q $end
$var wire 1 4 state.ST_YELLOW~feeder_combout $end
$var wire 1 5 state.ST_YELLOW~q $end
$var wire 1 6 state.ST_RED~feeder_combout $end
$var wire 1 7 state.ST_RED~q $end
$var wire 1 8 red~reg0feeder_combout $end
$var wire 1 9 red~reg0_q $end
$var wire 1 : yellow~reg0feeder_combout $end
$var wire 1 ; yellow~reg0_q $end
$var wire 1 < green~reg0feeder_combout $end
$var wire 1 = green~reg0_q $end
$upscope $end
$upscope $end
$enddefinitions $end
#0
$dumpvars
0!
0"
0#
0$
0%
1&
x'
1(
1)
1*
0+
0,
0-
0.
0/
10
01
12
03
04
05
06
07
08
09
0:
0;
0<
0=
$end
#20000
1!
1.
1/
13
11
1<
14
02
#40000
0!
0.
0/
#60000
1!
1.
1/
15
03
1=
1-
1"
1:
16
0<
04
#80000
0!
0.
0/
#100000
1!
1.
1/
17
05
0=
1;
1,
0-
0"
1$
18
12
0:
06
#120000
0!
0.
0/
#140000
1!
1.
1/
07
13
0;
19
1+
0,
0$
1#
08
02
1<
14
#160000
0!
0.
0/
#180000
1!
1.
1/
15
03
1=
09
0+
1-
1"
0#
1:
16
0<
04
#200000
0!
0.
0/
#220000
1!
1.
1/
17
05
0=
1;
1,
0-
0"
1$
18
12
0:
06
#240000
0!
0.
0/
#260000
1!
1.
1/
07
13
0;
19
1+
0,
0$
1#
08
02
1<
14
#280000
0!
0.
0/
#300000
1!
1.
1/
15
03
1=
09
0+
1-
1"
0#
1:
16
0<
04
#320000
0!
0.
0/
#340000
1!
1.
1/
17
05
0=
1;
1,
0-
0"
1$
18
12
0:
06
#360000
0!
0.
0/
#380000
1!
1.
1/
07
13
0;
19
1+
0,
0$
1#
08
02
1<
14
#400000
0!
0.
0/
#420000
1!
1.
1/
15
03
1=
09
0+
1-
1"
0#
1:
16
0<
04
#440000
0!
0.
0/
#460000
1!
1.
1/
17
05
0=
1;
1,
0-
0"
1$
18
12
0:
06
#480000
0!
0.
0/
#500000
1!
1.
1/
07
13
0;
19
1+
0,
0$
1#
08
02
1<
14
#520000
0!
0.
0/
#540000
1!
1.
1/
15
03
1=
09
0+
1-
1"
0#
1:
16
0<
04
#560000
0!
0.
0/
#580000
1!
1.
1/
17
05
0=
1;
1,
0-
0"
1$
18
12
0:
06
#600000
0!
0.
0/
#620000
1!
1.
1/
07
13
0;
19
1+
0,
0$
1#
08
02
1<
14
#640000
0!
0.
0/
#660000
1!
1.
1/
15
03
1=
09
0+
1-
1"
0#
1:
16
0<
04
#680000
0!
0.
0/
#700000
1!
1.
1/
17
05
0=
1;
1,
0-
0"
1$
18
12
0:
06
#720000
0!
0.
0/
#740000
1!
1.
1/
07
13
0;
19
1+
0,
0$
1#
08
02
1<
14
#760000
0!
0.
0/
#780000
1!
1.
1/
15
03
1=
09
0+
1-
1"
0#
1:
16
0<
04
#800000
0!
0.
0/
#820000
1!
1.
1/
17
05
0=
1;
1,
0-
0"
1$
18
12
0:
06
#840000
0!
0.
0/
#860000
1!
1.
1/
07
13
0;
19
1+
0,
0$
1#
08
02
1<
14
#880000
0!
0.
0/
#900000
1!
1.
1/
15
03
1=
09
0+
1-
1"
0#
1:
16
0<
04
#920000
0!
0.
0/
#940000
1!
1.
1/
17
05
0=
1;
1,
0-
0"
1$
18
12
0:
06
#960000
0!
0.
0/
#980000
1!
1.
1/
07
13
0;
19
1+
0,
0$
1#
08
02
1<
14
